{
  "titulo": "Las Mejores Bandas De Los 80",
  "members": [
    {
      "nombre": "Guns And Roses",
      "año": 1985,
      "urlImagen": "imagenes/Guns.jpg",
      "integrantes": [
        "Axl Rose (Voz)", 
        "Slash (Guitarra)", 
        "Izzy Stradlin (Guitarra Ritmica)", 
        "Duff Mckagan (Bajo)",
        "Steven Adler (Batería)"
        
      
    ]  
    },
    {
      "nombre": "Bon Jovi",
      "año": 1983,
      "urlImagen": "imagenes/Bon.jpg",
      "integrantes": [
        "John Bon Jovi (Voz)",
        "Richie Sambora (Guitarra)",
        "Hector Tico Torres (Batería)",
        "Alec John Such (Bajo)"
        
    ]
    },
    {
      "nombre": "Motley Crue",
      "año": 1981,
      "urlImagen":"imagenes/Motley.jpg",
      "integrantes": [
        "Vince Neil (Voz)",
        "Nikki Sixx (Bajo)",
        "Tommy Lee (Batería)",
        "Mick Mars (Guitarra)",
        
    ]  
    }
  ]
}